[
    {
        "Date": "1877",
        "Very Fine": "$1,692",
        "Extremely Fine": "$1,695",
        "About Uncirculated": "$1,701",
        "Uncirculated": "$1,746"
    },
    {
        "Date": "1877 CC",
        "Very Fine": "$2,058",
        "Extremely Fine": "$2,370",
        "About Uncirculated": "$10,921",
        "Uncirculated": "$38,080"
    },
    {
        "Date": "1877 S",
        "Very Fine": "$1,692",
        "Extremely Fine": "$1,695",
        "About Uncirculated": "$1,701",
        "Uncirculated": "$1,746"
    },
    {
        "Date": "1878",
        "Very Fine": "$1,692",
        "Extremely Fine": "$1,695",
        "About Uncirculated": "$1,701",
        "Uncirculated": "$1,746"
    },
    {
        "Date": "1878 CC",
        "Very Fine": "$4,907",
        "Extremely Fine": "$8,160",
        "About Uncirculated": "$17,920",
        "Uncirculated": "Rare"
    },
    {
        "Date": "1878 S",
        "Very Fine": "$1,692",
        "Extremely Fine": "$1,695",
        "About Uncirculated": "$1,701",
        "Uncirculated": "$1,746"
    },
    {
        "Date": "1879",
        "Very Fine": "$1,692",
        "Extremely Fine": "$1,695",
        "About Uncirculated": "$1,701",
        "Uncirculated": "$1,854"
    },
    {
        "Date": "1879 CC",
        "Very Fine": "$7,040",
        "Extremely Fine": "$10,573",
        "About Uncirculated": "$19,680",
        "Uncirculated": "Rare"
    },
    {
        "Date": "1879 O",
        "Very Fine": "Rare",
        "Extremely Fine": "Rare",
        "About Uncirculated": "Rare",
        "Uncirculated": "Rare"
    },
    {
        "Date": "1879 S",
        "Very Fine": "$1,692",
        "Extremely Fine": "$1,695",
        "About Uncirculated": "$1,701",
        "Uncirculated": "$2,169"
    },
    {
        "Date": "1880",
        "Very Fine": "$1,692",
        "Extremely Fine": "$1,695",
        "About Uncirculated": "$1,701",
        "Uncirculated": "$5,341"
    },
    {
        "Date": "1880 S",
        "Very Fine": "$1,692",
        "Extremely Fine": "$1,695",
        "About Uncirculated": "$1,701",
        "Uncirculated": "$1,746"
    },
    {
        "Date": "1881",
        "Very Fine": "Rare",
        "Extremely Fine": "Rare",
        "About Uncirculated": "Rare",
        "Uncirculated": "Rare"
    },
    {
        "Date": "1881 S",
        "Very Fine": "$1,692",
        "Extremely Fine": "$1,695",
        "About Uncirculated": "$1,701",
        "Uncirculated": "$1,746"
    },
    {
        "Date": "1882",
        "Very Fine": "Rare",
        "Extremely Fine": "Rare",
        "About Uncirculated": "Rare",
        "Uncirculated": "Rare"
    },
    {
        "Date": "1882 CC",
        "Very Fine": "$2,058",
        "Extremely Fine": "$2,370",
        "About Uncirculated": "$2,923",
        "Uncirculated": "Rare"
    },
    {
        "Date": "1882 S",
        "Very Fine": "$1,692",
        "Extremely Fine": "$1,695",
        "About Uncirculated": "$1,701",
        "Uncirculated": "$1,746"
    },
    {
        "Date": "1883 CC",
        "Very Fine": "$2,058",
        "Extremely Fine": "$2,273",
        "About Uncirculated": "$6,080",
        "Uncirculated": "Rare"
    },
    {
        "Date": "1883 S",
        "Very Fine": "$1,949",
        "Extremely Fine": "$1,955",
        "About Uncirculated": "$1,962",
        "Uncirculated": "$2,029"
    },
    {
        "Date": "1884 CC",
        "Very Fine": "$2,058",
        "Extremely Fine": "$2,370",
        "About Uncirculated": "$2,923",
        "Uncirculated": "$8,880"
    },
    {
        "Date": "1884 S",
        "Very Fine": "$1,692",
        "Extremely Fine": "$1,695",
        "About Uncirculated": "$1,701",
        "Uncirculated": "$1,746"
    },
    {
        "Date": "1885",
        "Very Fine": "Rare",
        "Extremely Fine": "Rare",
        "About Uncirculated": "Rare",
        "Uncirculated": "Rare"
    },
    {
        "Date": "1885 CC",
        "Very Fine": "$7,840",
        "Extremely Fine": "$9,163",
        "About Uncirculated": "$16,800",
        "Uncirculated": "Rare"
    },
    {
        "Date": "1885 S",
        "Very Fine": "$1,692",
        "Extremely Fine": "$1,695",
        "About Uncirculated": "$1,701",
        "Uncirculated": "$1,746"
    },
    {
        "Date": "1886",
        "Very Fine": "Rare",
        "Extremely Fine": "Rare",
        "About Uncirculated": "Rare",
        "Uncirculated": "Rare"
    },
    {
        "Date": "1887 S",
        "Very Fine": "$1,692",
        "Extremely Fine": "$1,695",
        "About Uncirculated": "$1,701",
        "Uncirculated": "$1,746"
    },
    {
        "Date": "1888",
        "Very Fine": "$1,692",
        "Extremely Fine": "$1,695",
        "About Uncirculated": "$1,701",
        "Uncirculated": "$1,746"
    },
    {
        "Date": "1888 S",
        "Very Fine": "$1,692",
        "Extremely Fine": "$1,695",
        "About Uncirculated": "$1,701",
        "Uncirculated": "$1,746"
    },
    {
        "Date": "1889",
        "Very Fine": "$1,692",
        "Extremely Fine": "$1,695",
        "About Uncirculated": "$1,701",
        "Uncirculated": "$1,854"
    },
    {
        "Date": "1889 CC",
        "Very Fine": "$2,058",
        "Extremely Fine": "$2,370",
        "About Uncirculated": "$6,118",
        "Uncirculated": "$20,160"
    },
    {
        "Date": "1889 S",
        "Very Fine": "$1,692",
        "Extremely Fine": "$1,695",
        "About Uncirculated": "$1,701",
        "Uncirculated": "$1,746"
    },
    {
        "Date": "1890",
        "Very Fine": "$1,692",
        "Extremely Fine": "$1,695",
        "About Uncirculated": "$1,701",
        "Uncirculated": "$1,746"
    },
    {
        "Date": "1890 CC",
        "Very Fine": "$2,058",
        "Extremely Fine": "$2,273",
        "About Uncirculated": "$2,633",
        "Uncirculated": "$8,817"
    },
    {
        "Date": "1890 S",
        "Very Fine": "$1,692",
        "Extremely Fine": "$1,695",
        "About Uncirculated": "$1,701",
        "Uncirculated": "$2,029"
    },
    {
        "Date": "1891",
        "Very Fine": "Rare",
        "Extremely Fine": "Rare",
        "About Uncirculated": "Rare",
        "Uncirculated": "Rare"
    },
    {
        "Date": "1891 CC",
        "Very Fine": "$8,647",
        "Extremely Fine": "$17,920",
        "About Uncirculated": "$22,880",
        "Uncirculated": "Rare"
    },
    {
        "Date": "1891 S",
        "Very Fine": "$1,692",
        "Extremely Fine": "$1,695",
        "About Uncirculated": "$1,701",
        "Uncirculated": "$1,746"
    },
    {
        "Date": "1892",
        "Very Fine": "$2,151",
        "Extremely Fine": "$2,370",
        "About Uncirculated": "$8,087",
        "Uncirculated": "$24,587"
    },
    {
        "Date": "1892 CC",
        "Very Fine": "$2,058",
        "Extremely Fine": "$2,273",
        "About Uncirculated": "$5,987",
        "Uncirculated": "$12,960"
    },
    {
        "Date": "1892 S",
        "Very Fine": "$1,692",
        "Extremely Fine": "$1,695",
        "About Uncirculated": "$1,701",
        "Uncirculated": "$1,746"
    },
    {
        "Date": "1893",
        "Very Fine": "$1,692",
        "Extremely Fine": "$1,695",
        "About Uncirculated": "$1,701",
        "Uncirculated": "$1,746"
    },
    {
        "Date": "1893 CC",
        "Very Fine": "$2,151",
        "Extremely Fine": "$4,672",
        "About Uncirculated": "$5,992",
        "Uncirculated": "$12,140"
    },
    {
        "Date": "1893 S",
        "Very Fine": "$1,692",
        "Extremely Fine": "$1,695",
        "About Uncirculated": "$1,701",
        "Uncirculated": "$1,746"
    },
    {
        "Date": "1894",
        "Very Fine": "$1,692",
        "Extremely Fine": "$1,695",
        "About Uncirculated": "$1,701",
        "Uncirculated": "$1,746"
    },
    {
        "Date": "1894 S",
        "Very Fine": "$1,692",
        "Extremely Fine": "$1,695",
        "About Uncirculated": "$1,701",
        "Uncirculated": "$1,746"
    },
    {
        "Date": "1895",
        "Very Fine": "$1,692",
        "Extremely Fine": "$1,695",
        "About Uncirculated": "$1,701",
        "Uncirculated": "$1,746"
    },
    {
        "Date": "1895 S",
        "Very Fine": "$1,692",
        "Extremely Fine": "$1,695",
        "About Uncirculated": "$1,701",
        "Uncirculated": "$1,746"
    },
    {
        "Date": "1896",
        "Very Fine": "$1,692",
        "Extremely Fine": "$1,695",
        "About Uncirculated": "$1,701",
        "Uncirculated": "$1,746"
    },
    {
        "Date": "1896 S",
        "Very Fine": "$1,692",
        "Extremely Fine": "$1,695",
        "About Uncirculated": "$1,701",
        "Uncirculated": "$1,746"
    },
    {
        "Date": "1897",
        "Very Fine": "$1,692",
        "Extremely Fine": "$1,695",
        "About Uncirculated": "$1,701",
        "Uncirculated": "$1,746"
    },
    {
        "Date": "1897 S",
        "Very Fine": "$1,692",
        "Extremely Fine": "$1,695",
        "About Uncirculated": "$1,701",
        "Uncirculated": "$1,746"
    },
    {
        "Date": "1898",
        "Very Fine": "$1,692",
        "Extremely Fine": "$1,695",
        "About Uncirculated": "$1,701",
        "Uncirculated": "$2,029"
    },
    {
        "Date": "1898 S",
        "Very Fine": "$1,692",
        "Extremely Fine": "$1,695",
        "About Uncirculated": "$1,701",
        "Uncirculated": "$1,746"
    },
    {
        "Date": "1899",
        "Very Fine": "$1,692",
        "Extremely Fine": "$1,695",
        "About Uncirculated": "$1,701",
        "Uncirculated": "$1,746"
    },
    {
        "Date": "1899 S",
        "Very Fine": "$1,692",
        "Extremely Fine": "$1,695",
        "About Uncirculated": "$1,701",
        "Uncirculated": "$1,746"
    },
    {
        "Date": "1900",
        "Very Fine": "$1,692",
        "Extremely Fine": "$1,695",
        "About Uncirculated": "$1,701",
        "Uncirculated": "$1,746"
    },
    {
        "Date": "1900 S",
        "Very Fine": "$1,692",
        "Extremely Fine": "$1,695",
        "About Uncirculated": "$1,701",
        "Uncirculated": "$1,746"
    },
    {
        "Date": "1901",
        "Very Fine": "$1,692",
        "Extremely Fine": "$1,695",
        "About Uncirculated": "$1,701",
        "Uncirculated": "$1,746"
    },
    {
        "Date": "1901 S",
        "Very Fine": "$1,692",
        "Extremely Fine": "$1,695",
        "About Uncirculated": "$1,701",
        "Uncirculated": "$1,746"
    },
    {
        "Date": "1902",
        "Very Fine": "$1,692",
        "Extremely Fine": "$1,695",
        "About Uncirculated": "$1,701",
        "Uncirculated": "$2,029"
    },
    {
        "Date": "1902 S",
        "Very Fine": "$1,692",
        "Extremely Fine": "$1,695",
        "About Uncirculated": "$1,701",
        "Uncirculated": "$1,746"
    },
    {
        "Date": "1903",
        "Very Fine": "$1,692",
        "Extremely Fine": "$1,695",
        "About Uncirculated": "$1,701",
        "Uncirculated": "$1,746"
    },
    {
        "Date": "1903 S",
        "Very Fine": "$1,692",
        "Extremely Fine": "$1,695",
        "About Uncirculated": "$1,701",
        "Uncirculated": "$1,746"
    },
    {
        "Date": "1904",
        "Very Fine": "$1,692",
        "Extremely Fine": "$1,695",
        "About Uncirculated": "$1,701",
        "Uncirculated": "$1,746"
    },
    {
        "Date": "1904 S",
        "Very Fine": "$1,692",
        "Extremely Fine": "$1,695",
        "About Uncirculated": "$1,701",
        "Uncirculated": "$1,746"
    },
    {
        "Date": "1905",
        "Very Fine": "$1,692",
        "Extremely Fine": "$1,695",
        "About Uncirculated": "$1,701",
        "Uncirculated": "$2,169"
    },
    {
        "Date": "1905 S",
        "Very Fine": "$1,692",
        "Extremely Fine": "$1,695",
        "About Uncirculated": "$1,701",
        "Uncirculated": "$1,746"
    },
    {
        "Date": "1906",
        "Very Fine": "$1,692",
        "Extremely Fine": "$1,695",
        "About Uncirculated": "$1,701",
        "Uncirculated": "$1,746"
    },
    {
        "Date": "1906 D",
        "Very Fine": "$1,692",
        "Extremely Fine": "$1,695",
        "About Uncirculated": "$1,701",
        "Uncirculated": "$1,746"
    },
    {
        "Date": "1906 S",
        "Very Fine": "$1,692",
        "Extremely Fine": "$1,695",
        "About Uncirculated": "$1,701",
        "Uncirculated": "$1,746"
    },
    {
        "Date": "1907",
        "Very Fine": "$1,692",
        "Extremely Fine": "$1,695",
        "About Uncirculated": "$1,701",
        "Uncirculated": "$1,746"
    },
    {
        "Date": "1907 D",
        "Very Fine": "$1,692",
        "Extremely Fine": "$1,695",
        "About Uncirculated": "$1,701",
        "Uncirculated": "$1,746"
    },
    {
        "Date": "1907 S",
        "Very Fine": "$1,692",
        "Extremely Fine": "$1,695",
        "About Uncirculated": "$1,701",
        "Uncirculated": "$1,746"
    }
]